\relax 
\providecommand\hyper@newdestlabel[2]{}
\catcode `"\active 
\providecommand\HyperFirstAtBeginDocument{\AtBeginDocument}
\HyperFirstAtBeginDocument{\ifx\hyper@anchor\@undefined
\global\let\oldcontentsline\contentsline
\gdef\contentsline#1#2#3#4{\oldcontentsline{#1}{#2}{#3}}
\global\let\oldnewlabel\newlabel
\gdef\newlabel#1#2{\newlabelxx{#1}#2}
\gdef\newlabelxx#1#2#3#4#5#6{\oldnewlabel{#1}{{#2}{#3}}}
\AtEndDocument{\ifx\hyper@anchor\@undefined
\let\contentsline\oldcontentsline
\let\newlabel\oldnewlabel
\fi}
\fi}
\global\let\hyper@last\relax 
\gdef\HyperFirstAtBeginDocument#1{#1}
\providecommand\HyField@AuxAddToFields[1]{}
\providecommand\HyField@AuxAddToCoFields[2]{}
\babel@aux{brazil}{}
\@writefile{toc}{\contentsline {chapter}{\numberline {1}Entendendo o Ardu\IeC {\'\i }no, sua IDE e como toda m\IeC {\'a}gica acontece}{2}{chapter.1}}
\@writefile{lof}{\addvspace {10\p@ }}
\@writefile{lot}{\addvspace {10\p@ }}
\@writefile{toc}{\contentsline {section}{\numberline {1.1}Introdu\IeC {\c c}\IeC {\~a}o}{2}{section.1.1}}
\@writefile{toc}{\contentsline {section}{\numberline {1.2}Ardu\IeC {\'\i }no Nano}{2}{section.1.2}}
\@writefile{lof}{\contentsline {figure}{\numberline {1.1}{\ignorespaces Diagrama com indica\IeC {\c c}\IeC {\~a}o dos pinos e suas fun\IeC {\c c}\IeC {\~o}es no Ardu\IeC {\'\i }no Nano\footnotemark .\relax }}{3}{figure.caption.1}}
\providecommand*\caption@xref[2]{\@setref\relax\@undefined{#1}}
\newlabel{Fig:pinagem_Arduino_Nano}{{1.1}{3}{Diagrama com indicação dos pinos e suas funções no Arduíno Nano\protect \footnotemark .\relax }{figure.caption.1}{}}
\@writefile{toc}{\contentsline {section}{\numberline {1.3}Interface de Desenvolvimento Integrada}{4}{section.1.3}}
\@writefile{lof}{\contentsline {figure}{\numberline {1.2}{\ignorespaces Site para \textit  {download} da IDE do Ardu\IeC {\'\i }no.\relax }}{4}{figure.caption.2}}
\newlabel{Fig:Site_Download_IDE_Arduino}{{1.2}{4}{Site para \textit {download} da IDE do Arduíno.\relax }{figure.caption.2}{}}
\@writefile{lof}{\contentsline {figure}{\numberline {1.3}{\ignorespaces Interface de desenvolvimento integrada para Arduino.\relax }}{5}{figure.caption.3}}
\newlabel{Fig:IDE_Arduino_Vazia_01}{{1.3}{5}{Interface de desenvolvimento integrada para Arduino.\relax }{figure.caption.3}{}}
\@writefile{lof}{\contentsline {figure}{\numberline {1.4}{\ignorespaces C\IeC {\'o}digo do exemplo ``Blink'' do Ardu\IeC {\'\i }no.\relax }}{6}{figure.caption.4}}
\newlabel{Cod:Exemplo_Blink_Arduino}{{1.4}{6}{Código do exemplo ``Blink'' do Arduíno.\relax }{figure.caption.4}{}}
\@writefile{toc}{\contentsline {section}{\numberline {1.4}Entendendo o C\IeC {\'o}digo - Exemplo Blink}{6}{section.1.4}}
\@writefile{toc}{\contentsline {chapter}{\numberline {2}Transformando a Teoria em Realidade}{9}{chapter.2}}
\@writefile{lof}{\addvspace {10\p@ }}
\@writefile{lot}{\addvspace {10\p@ }}
\@writefile{toc}{\contentsline {section}{\numberline {2.1}\textit  {Joystick} comandando um banco de LEDS}{9}{section.2.1}}
\newlabel{Fig::Arduino_Nano}{{2.1a}{10}{Subfigure 2 2.1a}{subfigure.2.1.1}{}}
\newlabel{sub@Fig::Arduino_Nano}{{(a)}{a}{Subfigure 2 2.1a\relax }{subfigure.2.1.1}{}}
\newlabel{Fig::Joystick}{{2.1b}{10}{Subfigure 2 2.1b}{subfigure.2.1.2}{}}
\newlabel{sub@Fig::Joystick}{{(b)}{b}{Subfigure 2 2.1b\relax }{subfigure.2.1.2}{}}
\newlabel{Fig::LED}{{2.1c}{10}{Subfigure 2 2.1c}{subfigure.2.1.3}{}}
\newlabel{sub@Fig::LED}{{(c)}{c}{Subfigure 2 2.1c\relax }{subfigure.2.1.3}{}}
\newlabel{Fig:Protoboard}{{2.1d}{10}{Subfigure 2 2.1d}{subfigure.2.1.4}{}}
\newlabel{sub@Fig:Protoboard}{{(d)}{d}{Subfigure 2 2.1d\relax }{subfigure.2.1.4}{}}
\@writefile{lof}{\contentsline {figure}{\numberline {2.1}{\ignorespaces Materiais necess\IeC {\'a}rios para o teste de funcionamento do \textit  {joystick}.\relax }}{10}{figure.caption.5}}
\newlabel{Fig::Materiais}{{2.1}{10}{Materiais necessários para o teste de funcionamento do \textit {joystick}.\relax }{figure.caption.5}{}}
\@writefile{lof}{\contentsline {subfigure}{\numberline{(a)}{\ignorespaces justification=Centering,singlelinecheck=false}}{10}{subfigure.1.1}}
\@writefile{lof}{\contentsline {subfigure}{\numberline{(b)}{\ignorespaces justification=Centering,singlelinecheck=false}}{10}{subfigure.1.2}}
\@writefile{lof}{\contentsline {subfigure}{\numberline{(c)}{\ignorespaces justification=Centering,singlelinecheck=false}}{10}{subfigure.1.3}}
\@writefile{lof}{\contentsline {subfigure}{\numberline{(d)}{\ignorespaces justification=Centering,singlelinecheck=false}}{10}{subfigure.1.4}}
\@writefile{lof}{\contentsline {figure}{\numberline {2.2}{\ignorespaces Circuito para realiza\IeC {\c c}\IeC {\~a}o dos testes e configura\IeC {\c c}\IeC {\~a}o do \textit  {joystick}.\relax }}{10}{figure.caption.6}}
\newlabel{Fig::Circuito_Joystick_LED}{{2.2}{10}{Circuito para realização dos testes e configuração do \textit {joystick}.\relax }{figure.caption.6}{}}
\@writefile{lof}{\contentsline {figure}{\numberline {2.3}{\ignorespaces C\IeC {\'o}digo para teste do \textit  {joystick}.\relax }}{11}{figure.caption.7}}
\newlabel{Cod:Teste_Arduino_LED}{{2.3}{11}{Código para teste do \textit {joystick}.\relax }{figure.caption.7}{}}
\@writefile{toc}{\contentsline {section}{\numberline {2.2}\textit  {Joystick} comandando um servo motor}{12}{section.2.2}}
\@writefile{lof}{\contentsline {figure}{\numberline {2.4}{\ignorespaces Servo motor 9g.\relax }}{12}{figure.caption.8}}
\newlabel{Fig:ServoMotor}{{2.4}{12}{Servo motor 9g.\relax }{figure.caption.8}{}}
\@writefile{lof}{\contentsline {figure}{\numberline {2.5}{\ignorespaces Circuito de liga\IeC {\c c}\IeC {\~a}o do \textit  {joystick} como servo motor.\relax }}{12}{figure.caption.9}}
\newlabel{Fig:Circuito_Joystick_ServoMotor}{{2.5}{12}{Circuito de ligação do \textit {joystick} como servo motor.\relax }{figure.caption.9}{}}
\@writefile{lof}{\contentsline {figure}{\numberline {2.6}{\ignorespaces C\IeC {\'o}digo para movimenta\IeC {\c c}\IeC {\~a}o do servo motor.\relax }}{13}{figure.caption.10}}
\newlabel{Cod:Arduino_Servo_Motor}{{2.6}{13}{Código para movimentação do servo motor.\relax }{figure.caption.10}{}}
\@writefile{toc}{\contentsline {chapter}{\numberline {3}Considera\IeC {\c c}\IeC {\~o}es Finais}{14}{chapter.3}}
\@writefile{lof}{\addvspace {10\p@ }}
\@writefile{lot}{\addvspace {10\p@ }}
